<?xml version="1.0" encoding="UTF-8" standalone="no"?>
<svg width="91px" height="91px" viewBox="0 0 91 91" version="1.1" xmlns="http://www.w3.org/2000/svg" xmlns:xlink="http://www.w3.org/1999/xlink">
    <defs>
        <path d="M11.6471987,1.79051623 C11.6471987,1.79051623 8.52811839,0.155697064 5.68541226,0.155697064 C2.84270613,0.155697064 0.0789640592,0.817409584 0.0789640592,0.817409584 L0,2.17975889 C0,2.17975889 0.236892178,2.41330448 0.592230444,2.76362288 C0.98705074,3.15286554 1.14497886,7.04529213 2.72426004,8.56333849 C4.30354123,10.1203091 8.29122622,10.1592334 9.63361522,9.34182381 C10.9365222,8.52441423 12.2394292,5.37154869 12.2394292,4.00919939 L12.2394292,3.23071407 C12.5552854,2.91931994 14.0950846,2.88039568 14.4504228,3.23071407 L14.4504228,4.00919939 C14.4504228,5.41047296 15.7138478,8.52441423 17.0562368,9.34182381 C18.3591438,10.1592334 22.3863108,10.1203091 23.965592,8.56333849 C25.5448732,7.00636786 25.7028013,3.15286554 26.0976216,2.76362288 C26.4924419,2.37438022 26.689852,2.17975889 26.689852,2.17975889 L26.6108879,0.817409584 C26.6108879,0.817409584 23.8076638,0.155697064 21.0044397,0.155697064 C18.1617336,0.155697064 15.0426533,1.79051623 15.0426533,1.79051623 C14.2530127,1.51804637 12.3973573,1.55697064 11.6471987,1.79051623 L11.6471987,1.79051623 Z" id="path-1"></path>
        <mask id="mask-2" maskContentUnits="userSpaceOnUse" maskUnits="objectBoundingBox" x="-1.177176" y="-1.177176" width="29.044204" height="12.068448">
            <rect x="-1.177176" y="-1.02147894" width="29.044204" height="12.068448" fill="white"></rect>
            <use xlink:href="#path-1" fill="black"></use>
        </mask>
        <linearGradient x1="100%" y1="-16.5902328%" x2="50%" y2="100%" id="linearGradient-3">
            <stop stop-color="#686868" offset="0%"></stop>
            <stop stop-color="#000000" offset="100%"></stop>
        </linearGradient>
    </defs>
    <g id="Page-1" stroke="none" stroke-width="1" fill="none" fill-rule="evenodd">
        <g id="Warm-selected">
            <rect id="Rectangle-39-Copy" fill="#F58F00" x="0.825360082" y="0.8" width="90" height="90" rx="2"></rect>
            <g id="Cow-hot" transform="translate(32.000000, 19.000000)">
                <g id="Layer_1">
                    <g id="XMLID_866_">
                        <path d="M2.53562368,1.7126677 C1.86442918,1.7126677 1.70650106,2.02406183 1.66701903,2.33545595 C1.46960888,3.5421082 2.85147992,5.91648841 5.33884778,6.733898 L5.93107822,6.92851933 L5.77315011,7.55130758 C5.69418605,7.86270171 5.65470402,8.13517157 5.65470402,8.4465657 L3.60163848,29.3878207 C3.20681818,31.6454282 3.04889006,35.4989305 4.23335095,36.5888099 C6.28641649,38.4571747 8.73430233,40.2866152 14.3012685,40.2866152 C20.0261628,40.2866152 22.8688689,38.496099 24.25074,37.0169769 C25.4746829,35.6935518 25.9484672,32.8131561 25.4746829,30.010609 C24.9614165,27.0134405 23.026797,9.30289955 22.947833,8.52441423 L22.947833,8.4465657 C22.947833,8.17409584 22.908351,7.90162597 22.8293869,7.62915611 L22.7109408,7.12314066 L23.1847252,6.88959506 C26.3432875,5.29370016 27.5277484,3.5421082 27.2908562,2.56900155 C27.1724101,2.06298609 26.5801797,1.75159196 25.7510571,1.75159196 C24.369186,1.79051623 24.290222,2.14083462 23.9348837,3.23071407 C23.6979915,3.97027512 23.4610994,4.86553324 22.6714588,5.76079135 L22.2371564,6.30573107 L21.7633721,5.83863988 C21.1316596,5.25477589 20.263055,4.94338177 19.3944503,4.94338177 L9.20808668,4.94338177 C8.41844609,4.94338177 7.66828753,5.21585163 7.03657505,5.68294282 L6.52330867,6.07218548 L6.08900634,5.60509429 C5.45729387,4.9044575 4.98350951,4.16489645 4.58868922,3.58103246 C3.83853066,2.29653169 3.40422833,1.7126677 2.53562368,1.7126677 L2.53562368,1.7126677 Z" id="XMLID_889_" fill="#FFFFFF"></path>
                        <path d="M2.53562368,1.7126677 C1.86442918,1.7126677 1.70650106,2.02406183 1.66701903,2.33545595 C1.46960888,3.5421082 2.85147992,5.91648841 5.33884778,6.733898 L5.93107822,6.92851933 L5.77315011,7.55130758 C5.69418605,7.86270171 5.65470402,8.13517157 5.65470402,8.4465657 L3.40422833,30.75017 C3.3647463,31.178337 8.93171247,30.75017 14.4591966,30.75017 C20.0261628,30.75017 25.593129,31.1394127 25.5536469,30.75017 C25.1193446,27.7530016 23.026797,9.26397528 22.947833,8.52441423 L22.947833,8.4465657 C22.947833,8.17409584 22.908351,7.90162597 22.8293869,7.62915611 L22.7109408,7.12314066 L23.1847252,6.88959506 C26.3432875,5.29370016 27.5277484,3.5421082 27.2908562,2.56900155 C27.1724101,2.06298609 26.5801797,1.75159196 25.7510571,1.75159196 C24.369186,1.79051623 24.290222,2.14083462 23.9348837,3.23071407 C23.6979915,3.97027512 23.4610994,4.86553324 22.6714588,5.76079135 L22.2371564,6.30573107 L21.7633721,5.83863988 C21.1316596,5.25477589 20.263055,4.94338177 19.3944503,4.94338177 L9.20808668,4.94338177 C8.41844609,4.94338177 7.66828753,5.21585163 7.03657505,5.68294282 L6.52330867,6.07218548 L6.08900634,5.60509429 C5.45729387,4.9044575 4.98350951,4.16489645 4.58868922,3.58103246 C3.83853066,2.29653169 3.40422833,1.7126677 2.53562368,1.7126677 L2.53562368,1.7126677 Z" id="XMLID_888_" fill="#FFFFFF"></path>
                        <g id="XMLID_877_" transform="translate(0.324630, 0.000000)" fill="#000000">
                            <ellipse id="XMLID_887_" cx="12.042019" cy="13.1564019" rx="0.671194503" ry="1.20665224"></ellipse>
                            <path d="M17.5300211,13.1564019 C17.5300211,13.8181144 17.2536469,14.3630541 16.8588266,14.3630541 C16.5034884,14.3630541 16.1876321,13.8181144 16.1876321,13.1564019 C16.1876321,12.4946893 16.4640063,11.9497496 16.8588266,11.9497496 C17.2536469,11.9497496 17.5300211,12.4946893 17.5300211,13.1564019 L17.5300211,13.1564019 Z" id="XMLID_886_"></path>
                            <path d="M6.90935518,35.3043092 C6.90935518,35.9660217 6.63298097,36.5109614 6.23816068,36.5109614 C5.88282241,36.5109614 5.6064482,35.9660217 5.6064482,35.3043092 C5.6064482,34.6425966 5.88282241,34.0976569 6.23816068,34.0976569 C6.59349894,34.0976569 6.90935518,34.6425966 6.90935518,35.3043092 L6.90935518,35.3043092 Z" id="XMLID_885_"></path>
                            <path d="M22.7811311,34.5647481 C22.7811311,35.2264606 22.5047569,35.7714003 22.1099366,35.7714003 C21.7545983,35.7714003 21.4387421,35.2264606 21.4387421,34.5647481 C21.4387421,33.9030356 21.7151163,33.3580959 22.1099366,33.3580959 C22.4652748,33.3580959 22.7811311,33.9030356 22.7811311,34.5647481 L22.7811311,34.5647481 Z" id="XMLID_884_"></path>
                            <path d="M25.8212474,31.762201 C21.7940803,30.9447914 6.672463,30.6333973 2.36892178,31.762201 L2.01358351,30.4777002 C6.55401691,29.3099722 21.8335624,29.6213663 26.0581395,30.4777002 L25.8212474,31.762201 L25.8212474,31.762201 Z" id="XMLID_883_"></path>
                            <path d="M13.9766385,41.571116 C7.89640592,41.571116 5.13266385,39.4692056 3.00063425,37.5229923 C0.908086681,35.6157033 1.85565539,29.8159877 1.97410148,29.1931994 L4.02716702,8.36871717 C4.02716702,8.17409584 4.02716702,7.97947451 4.06664905,7.78485318 C1.38187104,6.65604947 -0.276374207,3.97027512 0.0394820296,2.14083462 C0.197410148,1.05095518 1.02653277,0.389242659 2.21099366,0.389242659 C3.82975687,0.389242659 4.61939746,1.55697064 5.44852008,2.80254714 C5.72489429,3.26963833 6.08023256,3.73672952 6.47505285,4.24274498 C7.22521142,3.81457806 8.05433404,3.58103246 8.92293869,3.58103246 L19.1093023,3.58103246 C20.056871,3.58103246 20.9649577,3.85350232 21.7545983,4.35951778 C22.0704545,3.81457806 22.2283827,3.3085626 22.3863108,2.80254714 C22.741649,1.67374343 23.0969873,0.428166925 25.386945,0.350318393 L25.4659091,0.350318393 C26.9267442,0.350318393 28.032241,1.05095518 28.3086152,2.17975889 C28.6244715,3.61995673 27.6374207,5.79971562 23.9261099,7.78485318 C23.965592,7.97947451 23.965592,8.17409584 23.965592,8.36871717 C24.044556,9.26397528 25.9791755,26.8577435 26.4529598,29.7381391 C27.0057082,32.9688532 26.4134778,36.2384915 24.9131607,37.8733107 C23.3733615,39.5470541 20.1753171,41.571116 13.9766385,41.571116 L13.9766385,41.571116 Z M2.21099366,1.7126677 C1.53979915,1.7126677 1.38187104,2.02406183 1.34238901,2.33545595 C1.14497886,3.5421082 2.52684989,5.91648841 5.01421776,6.733898 L5.6064482,6.92851933 L5.44852008,7.55130758 C5.36955603,7.86270171 5.330074,8.13517157 5.330074,8.4465657 L3.27700846,29.3878207 C2.88218816,31.6454282 2.72426004,35.4989305 3.90872093,36.5888099 C5.96178647,38.4571747 8.4096723,40.2866152 13.9766385,40.2866152 C19.7015328,40.2866152 22.5442389,38.496099 23.9261099,37.0169769 C25.1500529,35.6935518 25.6238372,32.8131561 25.1500529,30.010609 C24.6367865,27.0134405 22.702167,9.30289955 22.623203,8.52441423 L22.623203,8.4465657 C22.623203,8.17409584 22.5837209,7.90162597 22.5047569,7.62915611 L22.3863108,7.12314066 L22.8600951,6.88959506 C26.0186575,5.29370016 27.2031184,3.5421082 26.9662262,2.56900155 C26.8477801,2.06298609 26.2555497,1.75159196 25.4264271,1.75159196 C24.044556,1.79051623 23.965592,2.14083462 23.6102537,3.23071407 C23.3733615,3.97027512 23.1364693,4.86553324 22.3468288,5.76079135 L21.9125264,6.30573107 L21.4387421,5.83863988 C20.8070296,5.25477589 19.9384249,4.94338177 19.0698203,4.94338177 L8.88345666,4.94338177 C8.09381607,4.94338177 7.34365751,5.21585163 6.71194503,5.68294282 L6.19867865,6.07218548 L5.76437632,5.60509429 C5.13266385,4.9044575 4.65887949,4.16489645 4.2640592,3.58103246 C3.51390063,2.29653169 3.07959831,1.7126677 2.21099366,1.7126677 L2.21099366,1.7126677 Z" id="XMLID_880_"></path>
                            <path d="M13.5028541,3.1917898 C13.5028541,4.70983617 13.384408,5.25477589 12.7921776,5.25477589 C12.1999471,5.25477589 12.002537,4.63198764 12.002537,3.11394127 C12.002537,1.5958949 12.1604651,0.700636786 12.7526956,0.700636786 C13.344926,0.66171252 13.5028541,1.63481917 13.5028541,3.1917898 L13.5028541,3.1917898 Z" id="XMLID_879_"></path>
                            <path d="M15.6743658,3.1917898 C15.6743658,4.70983617 15.5559197,5.25477589 14.9636892,5.25477589 C14.3714588,5.25477589 14.1740486,4.63198764 14.1740486,3.11394127 C14.1740486,1.5958949 14.3319767,0.700636786 14.9242072,0.700636786 C15.4769556,0.66171252 15.6743658,1.63481917 15.6743658,3.1917898 L15.6743658,3.1917898 Z" id="XMLID_878_"></path>
                        </g>
                        <path d="M23.8164376,10.3538547 C23.1452431,11.8329768 23.026797,13.6234931 22.7504228,15.219388 C22.3556025,17.3212983 21.2106237,19.3064359 21.5264799,21.4861948 C21.7238901,23.0042411 22.3556025,25.1450758 23.8559197,25.9235611 C26.0274313,27.0523648 25.7905391,27.4026832 25.7905391,27.4026832 L23.8164376,10.3538547 L23.8164376,10.3538547 Z" id="XMLID_876_" fill="#000000"></path>
                        <path d="M4.86506342,10.3538547 C5.53625793,11.8329768 5.65470402,13.6234931 5.93107822,15.219388 C6.32589852,17.3212983 7.47087738,19.3064359 7.15502114,21.4861948 C6.95761099,23.0042411 6.32589852,25.1450758 4.8255814,25.9235611 C2.65406977,27.0523648 2.85147992,27.4026832 2.85147992,27.4026832 L4.86506342,10.3538547 L4.86506342,10.3538547 Z" id="XMLID_875_" fill="#000000"></path>
                        <g id="XMLID_874_" transform="translate(1.114271, 8.952581)">
                            <g id="glasses_43_">
                                <use fill="#F05910" fill-rule="evenodd" xlink:href="#path-1"></use>
                                <use stroke="#000000" mask="url(#mask-2)" stroke-width="2.354352" xlink:href="#path-1"></use>
                            </g>
                            <path d="M10.7785941,2.53007728 C10.7785941,2.53007728 8.25174419,1.20665224 5.92230444,1.20665224 C3.63234672,1.20665224 1.65824524,1.75159196 1.65824524,1.75159196 C1.65824524,1.75159196 1.89513742,3.5421082 1.93461945,3.81457806 C2.17151163,4.82660897 2.44788584,7.04529213 3.4744186,8.05732304 C4.73784355,9.30289955 7.97536998,9.34182381 9.08086681,8.68011129 C10.1468816,8.01839877 11.1734144,5.48832149 11.1734144,4.35951778 L11.1734144,3.73672952 L10.7785941,2.53007728 Z" id="glasses_42_" stroke="#000000" stroke-width="0.6825" fill="url(#linearGradient-3)"></path>
                            <path d="M15.5559197,3.69780526 L15.5559197,4.32059351 C15.5559197,5.44939722 16.5824524,7.97947451 17.6484672,8.64118703 C18.714482,9.30289955 21.9520085,9.26397528 23.2549154,8.01839877 C24.2814482,7.00636786 24.5578224,4.74876044 24.7947146,3.77565379 C24.8341966,3.5421082 25.0710888,1.7126677 25.0710888,1.7126677 C25.0710888,1.7126677 23.0969873,1.16772798 20.8070296,1.16772798 C18.5170719,1.16772798 15.990222,2.49115302 15.990222,2.49115302 L15.5559197,3.69780526 Z" id="glasses_41_" stroke="#000000" stroke-width="0.6825" fill="url(#linearGradient-3)"></path>
                        </g>
                    </g>
                </g>
            </g>
            <text id="Warm" font-family="ProximaNova-Bold, ProximaNova" font-size="16" font-weight="bold" fill="#000000">
                <tspan x="25.0701463" y="78">Warm</tspan>
            </text>
        </g>
    </g>
</svg>