<?xml version="1.0" encoding="utf-8"?>
    <!DOCTYPE svg PUBLIC "-//W3C//DTD SVG 1.1//EN" "http://www.w3.org/Graphics/SVG/1.1/DTD/svg11.dtd">
    <svg version="1.1" xmlns="http://www.w3.org/2000/svg" xmlns:xlink="http://www.w3.org/1999/xlink" width="6" height="24" viewBox="0 0 160 448">
        <path fill="#f05910" d="M128 312v56q0 6.5-4.75 11.25t-11.25 4.75h-64q-6.5 0-11.25-4.75t-4.75-11.25v-56q0-6.5 4.75-11.25t11.25-4.75h64q6.5 0 11.25 4.75t4.75 11.25zM135.5 48l-7 192q-0.25 6.5-5.125 11.25t-11.375 4.75h-64q-6.5 0-11.375-4.75t-5.125-11.25l-7-192q-0.25-6.5 4.375-11.25t11.125-4.75h80q6.5 0 11.125 4.75t4.375 11.25z"></path>
    </svg>
